%YAML 1.1
%TAG !u! tag:unity3d.com,2011:
--- !u!21 &2100000
Material:
  serializedVersion: 6
  m_ObjectHideFlags: 0
  m_CorrespondingSourceObject: {fileID: 0}
  m_PrefabInstance: {fileID: 0}
  m_PrefabAsset: {fileID: 0}
  m_Name: xinzang_flashing
  m_Shader: {fileID: 4800000, guid: c570c2f5c4fc47e468d055cfc6fc7f72, type: 3}
  m_ShaderKeywords: 
  m_LightmapFlags: 4
  m_EnableInstancingVariants: 0
  m_DoubleSidedGI: 0
  m_CustomRenderQueue: -1
  stringTagMap: {}
  disabledShaderPasses: []
  m_SavedProperties:
    serializedVersion: 3
    m_TexEnvs:
    - _BumpMap:
        m_Texture: {fileID: 2800000, guid: 18803afad5db43f4bb17048139ab4eba, type: 3}
        m_Scale: {x: 1, y: 1}
        m_Offset: {x: 0, y: 0}
    - _MainTex:
        m_Texture: {fileID: 2800000, guid: 02613d5fa7c745b4cbb34c05d3226a39, type: 3}
        m_Scale: {x: 1, y: 1}
        m_Offset: {x: 0, y: 0}
    m_Floats:
    - _BumpScale: 10
    - _EnableFlashing: 0
    - _FlashSpeed: 3.3
    - _Glossiness: 0.5
    - _Metallic: 0
    - _Outline: 0.37
    m_Colors:
    - _Diffuse: {r: 1, g: 1, b: 1, a: 1}
    - _OutlineColor: {r: 1, g: 0, b: 0, a: 1}
  m_BuildTextureStacks: []
