%YAML 1.1
%TAG !u! tag:unity3d.com,2011:
--- !u!114 &11400000
MonoBehaviour:
  m_ObjectHideFlags: 0
  m_CorrespondingSourceObject: {fileID: 0}
  m_PrefabInstance: {fileID: 0}
  m_PrefabAsset: {fileID: 0}
  m_GameObject: {fileID: 0}
  m_Enabled: 1
  m_EditorHideFlags: 0
  m_Script: {fileID: 11500000, guid: 6474029bad290034fae34eb1fdde44bd, type: 3}
  m_Name: FormulaConfig
  m_EditorClassIdentifier: 
  formulaConfigList:
  - name: "\u8D31\u7537\u6D88\u5931\u7247"
    desc: "\u8840\u538B\u964D\u4F4E\uFF0C\u5FC3\u810F\u529F\u80FD\u6301\u7EED\u8D70\u597D"
    formulaValue: 1.2
    propertiesList:
    - "\u8427\u5C71\u7518\u6CB9"
    - "\u7532\u57FA\u5E15\u62C9\u897F\u5766"
    - "\u9EC4\u733F\u80F6"
  - name: APTX2887
    desc: "ACG\u836F\u7269"
    formulaValue: 1.2333
    propertiesList:
    - "\u9EC4\u733F\u80F6"
    - "\u5DE6\u4F0A\u62C9\u53CC\u916F"
    - "\u5F17\u5229\u8428\u661F"
    - "\u5229\u5DF4\u5C14\u97E6\u6797"
    - "\u79CB\u591A\u5361\u56E0"
  - name: "\u521D\u5165\u6C11\u79D1"
    desc: "\u521D\u7EA7\u836F\u4E38"
    formulaValue: 1.05
    propertiesList:
    - "\u4E09\u916E"
    - "\u7532\u57FA\u805A\u916F"
  - name: "\u901F\u6548\u6551\u5FC3\u5B8C"
    desc: "\u5FC3\uFF0C\u53C8\u8DF3\u4E86\u8D77\u6765"
    formulaValue: 1.1
    propertiesList:
    - "\u5DE6\u4F0A\u62C9\u53CC\u916F"
    - "\u8427\u5C71\u7518\u6CB9"
    - "\u79CB\u591A\u5361\u56E0"
  - name: "\u7A76\u6781\u62A4\u809D\u7247"
    desc: "\u73B0\u4EE3\u90FD\u5E02\u4EBA\u5FC5\u5907"
    formulaValue: 1.1
    propertiesList:
    - "\u7532\u57FA\u805A\u916F"
    - "\u9EC4\u733F\u80F6"
    - "\u6C1F\u745E\u6C99\u660E"
  - name: "\u813E\u813E\u4E39"
    desc: "\u9020\u8840\u68A6\u5DE5\u5382"
    formulaValue: 1.07
    propertiesList:
    - "\u7532\u57FA\u5E15\u62C9\u897F\u5766"
    - "\u5F17\u5229\u8428\u661F"
    - "\u6C28\u57FA\u915A"
  - name: "\u80BE\u5B9D"
    desc: "\u4E00\u74F6\u63D0\u795E\u9192\u8111\uFF0C\u4E24\u74F6\u6C38\u4E0D\u75B2\u52B3"
    formulaValue: 1.04
    propertiesList:
    - "\u6C83\u6770\u5316\u950C\u80F6\u4F53"
    - "\u5F17\u5229\u8428\u661F"
  - name: "\u80C3\u52A8\u529B"
    desc: 
    formulaValue: 1.03
    propertiesList:
    - "\u4E09\u916E"
    - "\u8427\u5C71\u7518\u6CB9"
    - "\u5229\u5DF4\u5C14\u97E6\u6797"
  - name: "\u6551\u8F6C\u5927\u80A0"
    desc: "\u539F\u5473\u5927\u80A0\uFF0C\u66F9\u4E3B\u6301\u5403\u4E86\u90FD\u8BF4\u597D"
    formulaValue: 1.02
    propertiesList:
    - "\u5F17\u5229\u8428\u661F"
    - "\u5229\u5DF4\u5C14\u97E6\u6797"
