%YAML 1.1
%TAG !u! tag:unity3d.com,2011:
--- !u!1045 &1
EditorBuildSettings:
  m_ObjectHideFlags: 0
  serializedVersion: 2
  m_Scenes:
  - enabled: 1
    path: Assets/Scenes/Main.unity
    guid: 2cda990e2423bbf4892e6590ba056729
  - enabled: 1
    path: Assets/Scenes/Level1.unity
    guid: 5a29b84a2e3d968458beac941a2ee809
  - enabled: 1
    path: Assets/Scenes/Empty.unity
    guid: 6bae2609cbd377249b167da7f7c42288
  m_configObjects:
    com.unity.input.settings: {fileID: 11400000, guid: e2df648f500409c43a16e22341fb1572, type: 2}
